…
What are the ten countries with the lowest or highest life expectancy? Let's only consider the most recent data from the year 2007.

``` r
gapminder %>% 
    filter(year == 2007) %>%
    mutate(ranking = rank(desc(lifeExp), ties.method = 'first')) %>% 
    arrange(desc(ranking))
```

    ## # A tibble: 142 x 7
    ##    country               continent  year lifeExp     pop gdpPercap ranking
    ##    <fct>                 <fct>     <int>   <dbl>   <int>     <dbl>   <int>
    ##  1 Swaziland             Africa     2007    39.6  1.13e6     4513.     142
    ##  2 Mozambique            Africa     2007    42.1  2.00e7      824.     141
    ##  3 Zambia                Africa     2007    42.4  1.17e7     1271.     140
    ##  4 Sierra Leone          Africa     2007    42.6  6.14e6      863.     139
    ##  5 Lesotho               Africa     2007    42.6  2.01e6     1569.     138
    ##  6 Angola                Africa     2007    42.7  1.24e7     4797.     137
    ##  7 Zimbabwe              Africa     2007    43.5  1.23e7      470.     136
    ##  8 Afghanistan           Asia       2007    43.8  3.19e7      975.     135
    ##  9 Central African Repu~ Africa     2007    44.7  4.37e6      706.     134
    ## 10 Liberia               Africa     2007    45.7  3.19e6      415.     133
    ## # ... with 132 more rows

``` r
gapminder %>% 
    filter(year == 2007) %>%
    mutate(ranking = rank(desc(lifeExp), ties.method = 'first')) %>% 
    arrange(ranking)
```

    ## # A tibble: 142 x 7
    ##    country          continent  year lifeExp       pop gdpPercap ranking
    ##    <fct>            <fct>     <int>   <dbl>     <int>     <dbl>   <int>
    ##  1 Japan            Asia       2007    82.6 127467972    31656.       1
    ##  2 Hong Kong, China Asia       2007    82.2   6980412    39725.       2
    ##  3 Iceland          Europe     2007    81.8    301931    36181.       3
    ##  4 Switzerland      Europe     2007    81.7   7554661    37506.       4
    ##  5 Australia        Oceania    2007    81.2  20434176    34435.       5
    ##  6 Spain            Europe     2007    80.9  40448191    28821.       6
    ##  7 Sweden           Europe     2007    80.9   9031088    33860.       7
    ##  8 Israel           Asia       2007    80.7   6426679    25523.       8
    ##  9 France           Europe     2007    80.7  61083916    30470.       9
    ## 10 Canada           Americas   2007    80.7  33390141    36319.      10
    ## # ... with 132 more rows
…
